{
    "file_format_version" : "1.0.0",
    "layer" : {
      "name": "VK_KSEURER_acceleration_structure_dump",
      "type": "GLOBAL",
      "api_version": "1.3.207",
      "library_path": "/usr/local/lib64/libVK_KSEURER_acceleration_structure_dump.so",
      "implementation_version": "1",
      "description": "Layer for dumping acceleration structures",
      "functions": {
         "vkNegotiateLoaderLayerInterfaceVersion": "vkNegotiateLoaderLayerInterfaceVersion"
      }
    }
}